<svg width="25" height="24" viewBox="0 0 25 24" fill="none" xmlns="http://www.w3.org/2000/svg">
<path d="M19.986 2.01221L22.986 5.01221L20.699 7.30021L17.699 4.30021L19.986 2.01221ZM8.99805 16.0002H11.998L19.285 8.71321L16.285 5.71321L8.99805 13.0002V16.0002Z" fill="#808080"/>
<path d="M19.998 19.0002H9.15605C9.13005 19.0002 9.10305 19.0102 9.07705 19.0102C9.04405 19.0102 9.01105 19.0012 8.97705 19.0002H5.99805V5.00024H12.845L14.845 3.00024H5.99805C4.89505 3.00024 3.99805 3.89624 3.99805 5.00024V19.0002C3.99805 20.1042 4.89505 21.0002 5.99805 21.0002H19.998C20.5285 21.0002 21.0372 20.7895 21.4123 20.4145C21.7873 20.0394 21.998 19.5307 21.998 19.0002V10.3322L19.998 12.3322V19.0002Z" fill="#808080"/>
</svg>
